root\controller\Controller.class
root\model\dao\exceptions\IllegalOrphanException.class
root\model\dao\exceptions\NonexistentEntityException.class
root\model\dao\exceptions\PreexistingEntityException.class
root\model\dao\UsuUsuarioDAO.class
root\model\entities\UsuUsuario.class
